{
  "type": "object",
  "description": "Starts a new simple-onboarding",
  "definitions": {},
  "required": [
    "nationalId",
    "approveCreditCheck"
  ],
  "properties": {
    "nationalId": {
      "type": "string",
      "title": "National id",
      "description": "Your national id, 11 digits",
      "pattern": "^[0-9]{11}$"
    },
    "approveCreditCheck": {
      "type": "boolean",
      "title": "Approve credit check",
      "description": "Do you approve a credit check?",
      "enum": [
        true
      ]
    }
  }
}
